Project: Exploratory Analysis
…
3. Data Extraction and Preparation

3.1 Install/Load R Packages

A list of packages are required for this protyping report. This code chunk installs the required packages for testing and loads them onto RStudio environment.

3.2 Data Preparation and Cleaning

The data set used in this report is from Kaggle, which contains two csv files, student-mat.csv and student-por.csv. The data was obtained from a survey of Portuguese students aged 15 to 22 from mathematics and Portuguese language course. The data was obtained through a survey on family demographics, lifestyle factors, along with their grades in mathematics and Portuguese language. The data set contains other variables that can be broadly classified into family demographics and lifestyle factors.

metadata <- read_xlsx("data/data_metadata.xlsx", sheet = 1)

metadata

# A tibble: 33 x 3
   `Variable Name` Description         Details                        
   <chr>           <chr>               <chr>                          
 1 school          Student's school    "'GP' - Gabriel Pereira\r\n'MS~
 2 sex             Student's sex       "'F' - female\r\n'M' - male"   
 3 age             Student's age       "from 15 to 22"                
 4 address         Student's home add~ "'U' - urban\r\n'R' - rural"   
 5 famsize         Family size         "'LE3' - less or equal to 3\r\~
 6 Pstatus         Parent's cohabitat~ "'T' - living together\r\n'A' ~
 7 Medu            Mother's education  "0 - none\r\n1 - primary educa~
 8 Fedu            Father's education  "0 - none\r\n1 - primary educa~
 9 Mjob            Mother's job        "teacher' - teacher\r\n'health~
10 Fjob            Father's job        "teacher' - teacher\r\n'health~
# ... with 23 more rows
…
